…
df
#> # A tibble: 83 x 3
#>    wavelength        ed0p        ed0m
#>         <dbl>       <dbl>       <dbl>
#>  1        290 0.000000200 0          
#>  2        295 0.000000533 0.000000299
#>  3        300 0.0000422   0.0000449  
#>  4        305 0.00112     0.00120    
#>  5        310 0.0107      0.0115     
#>  6        315 0.0429      0.0459     
#>  7        320 0.0728      0.0780     
#>  8        325 0.132       0.141      
#>  9        330 0.221       0.237      
#> 10        335 0.235       0.252      
#> # … with 73 more rows
…
